{
    "page": 1,
    "results": [
      {
        "genre_ids": [1, 2, 3, 4],
        "id": 1,
        "original_name": "Original Name",
        "overview": "Overview",
        "poster_path": "/path.jpg",
        "name": "Name",
        "vote_average": 1.0
      }
  ],
  "total_pages": 51,
  "total_results": 1016
}